module todoapiV1.0

go 1.17

require (
	github.com/go-sql-driver/mysql v1.6.0 // indirect
	github.com/google/uuid v1.3.0 // indirect
	github.com/labstack/echo/v4 v4.6.3 // indirect
	github.com/labstack/gommon v0.3.1 // indirect
	github.com/mattn/go-colorable v0.1.11 // indirect
	github.com/mattn/go-isatty v0.0.14 // indirect
	github.com/valyala/bytebufferpool v1.0.0 // indirect
	github.com/valyala/fasttemplate v1.2.1 // indirect
	golang.org/x/crypto v0.0.0-20210817164053-32db794688a5 // indirect
	golang.org/x/net v0.0.0-20210913180222-943fd674d43e // indirect
	golang.org/x/sys v0.0.0-20211103235746-7861aae1554b // indirect
	golang.org/x/text v0.3.7 // indirect
	gopkg.in/validator.v2 v2.0.0-20210331031555-b37d688a7fb0 // indirect
)
